%YAML 1.1
%TAG !u! tag:unity3d.com,2011:
--- !u!1045 &1
EditorBuildSettings:
  m_ObjectHideFlags: 0
  serializedVersion: 2
  m_Scenes:
  - enabled: 0
    path: 
    guid: 00000000000000000000000000000000
  - enabled: 1
    path: Assets/Scenas/escena1.unity
    guid: c4b47bac2682e8848a7c12e5bdc002e5
  - enabled: 1
    path: Assets/Scenas/escenaelecciondepersonaje.unity
    guid: 51ba44785cb974f40958fd6b7b7b062b
  - enabled: 1
    path: Assets/Scenas/escena3.unity
    guid: cc78d840dbe2d8e40ab8cb290658ff6b
  - enabled: 1
    path: Assets/Scenas/Error.unity
    guid: e698a0eaf24717848845c30b72f7ee1d
  - enabled: 1
    path: Assets/Scenas/Findeljuego.unity
    guid: 57963785dfad8f7438c43f36098b1731
  m_configObjects: {}
